Data Tools for Managing Animal Disease Introduction Risk • riskintrodata
…
tun_files <-
  system.file(
    package = "riskintrodata",
    "samples",
    "tunisia",
    "epi_units",
    "tunisia_adm2_clean.gpkg"
  )
read_geo_file(tun_files)
#> Simple feature collection with 268 features and 1 field
#> Geometry type: MULTIPOLYGON
#> Dimension:     XY
#> Bounding box:  xmin: 7.530076 ymin: 30.23681 xmax: 11.59826 ymax: 37.55986
#> Geodetic CRS:  WGS 84
#> # A tibble: 268 × 2
#>    eu_name                                                                  geom
#>    <chr>                                                      <MULTIPOLYGON [°]>
#>  1 Ariana Médina      (((10.13861 36.89453, 10.14495 36.89476, 10.15127 36.8947…
#>  2 Ettadhamen         (((10.05585 36.84308, 10.06575 36.85019, 10.07327 36.8544…
#>  3 Kalaat El Andalous (((10.13862 36.89416, 10.1329 36.88994, 10.13283 36.88892…
#>  4 Mnihla             (((10.1317 36.88428, 10.1317 36.88271, 10.1317 36.8797, 1…
#>  5 Raoued             (((10.16651 36.88694, 10.16422 36.88874, 10.1576 36.89235…
#>  6 Sebkhet Ariana     (((10.27118 36.88874, 10.26842 36.88874, 10.26149 36.8878…
#>  7 Sidi Thabet        (((10.01018 37.00285, 10.0102 37.00285, 10.01045 37.00283…
#>  8 Soukra             (((10.19313 36.85656, 10.19313 36.85892, 10.19313 36.8640…
#>  9 Amdoun             (((9.141866 36.86897, 9.140129 36.86767, 9.137473 36.8660…
#> 10 Béja Nord          (((9.086732 36.70221, 9.082556 36.70772, 9.078131 36.7114…
#> # ℹ 258 more rows

nga_files <- system.file(
  package = "riskintrodata",
  "samples",
  "nigeria",
  "epi_units",
  "NGA-ADM1.geojson"
)
read_geo_file(nga_files)
#> Simple feature collection with 37 features and 5 fields
#> Geometry type: POLYGON
#> Dimension:     XY
#> Bounding box:  xmin: 2.692613 ymin: 4.270204 xmax: 14.67797 ymax: 13.88571
#> Geodetic CRS:  WGS 84
#> # A tibble: 37 × 6
#>    shapeName     shapeISO shapeID shapeGroup shapeType                  geometry
#>    <chr>         <chr>    <chr>   <chr>      <chr>                 <POLYGON [°]>
#>  1 Cross River   NG-CR    276711… NGA        ADM1      ((8.274303 4.854739, 8.3…
#>  2 Abuja Federa… NG-FC    276711… NGA        ADM1      ((6.980815 8.443728, 7.0…
#>  3 Ogun          NG-OG    276711… NGA        ADM1      ((4.483238 6.326054, 4.4…
#>  4 Oyo           NG-OY    276711… NGA        ADM1      ((4.088356 7.133446, 4.0…
#>  5 Sokoto        NG-SO    276711… NGA        ADM1      ((4.126405 13.24967, 4.1…
#>  6 Zamfara       NG-ZA    276711… NGA        ADM1      ((4.941011 11.73083, 4.9…
#>  7 Lagos         NG-LA    276711… NGA        ADM1      ((2.704644 6.459847, 2.6…
#>  8 Akwa Ibom     NG-AK    276711… NGA        ADM1      ((7.88037 5.366796, 7.87…
#>  9 Bayelsa       NG-BY    276711… NGA        ADM1      ((5.448385 5.133691, 5.4…
#> 10 Ondo          NG-ON    276711… NGA        ADM1      ((4.483238 6.326054, 4.5…
#> # ℹ 27 more rows
…
#> 1 eu_id    TRUE  FALSE    TRUE         NA    NA    NA    "eu_id" has been valid…
#> 2 eu_id    TRUE  FALSE    TRUE         NA    NA    NA    "eu_id" has been valid…
#> 3 eu_name  FALSE TRUE     FALSE        NA    NA    NA    Column: "eu_name" is m…
#> 4 geometry FALSE TRUE     FALSE        NA    NA    NA    Column: "geometry" is …
#> 
#> attr(,"class")
#> [1] "validation_status"
#> 
#> $dataset
#> Simple feature collection with 268 features and 0 fields
#> Geometry type: MULTIPOLYGON
#> Dimension:     XY
#> Bounding box:  xmin: 7.530076 ymin: 30.23681 xmax: 11.59826 ymax: 37.55986
#> Geodetic CRS:  WGS 84
#> # A tibble: 268 × 1
#>                                                                             geom
#>                                                               <MULTIPOLYGON [°]>
#>  1 (((10.13861 36.89453, 10.14495 36.89476, 10.15127 36.89476, 10.1576 36.89235…
#>  2 (((10.05585 36.84308, 10.06575 36.85019, 10.07327 36.8544, 10.07366 36.85451…
#>  3 (((10.13862 36.89416, 10.1329 36.88994, 10.13283 36.88892, 10.1326 36.88572,…
#>  4 (((10.1317 36.88428, 10.1317 36.88271, 10.1317 36.8797, 10.12929 36.87579, 1…
#>  5 (((10.16651 36.88694, 10.16422 36.88874, 10.1576 36.89235, 10.15127 36.89476…
#>  6 (((10.27118 36.88874, 10.26842 36.88874, 10.26149 36.88783, 10.25577 36.8863…
#>  7 (((10.01018 37.00285, 10.0102 37.00285, 10.01045 37.00283, 10.01063 37.00281…
#>  8 (((10.19313 36.85656, 10.19313 36.85892, 10.19313 36.86404, 10.19313 36.8667…
#>  9 (((9.141866 36.86897, 9.140129 36.86767, 9.137473 36.86604, 9.133329 36.8623…
#> 10 (((9.086732 36.70221, 9.082556 36.70772, 9.078131 36.71146, 9.075724 36.7131…
#> # ℹ 258 more rows
…
