Read Emission Risk Factor File — read_emission_risk_factor_file • riskintrodata
…
    Examples

tun_erf_file <-
  system.file(
    package = "riskintrodata",
    "samples",
    "tunisia",
    "emission_risk_factor",
    "emission_risk_factors.csv"
  )
x <- read_emission_risk_factor_file(tun_erf_file)
x
#> # A tibble: 65 × 18
#>    iso3  country            disease animal_category species disease_notification
#>    <chr> <chr>              <chr>   <chr>           <chr>                  <int>
#>  1 ALB   Albania            Brucel… Domestic        Cattle                     0
#>  2 BWA   Botswana           Brucel… Domestic        Cattle                     1
#>  3 CYM   Cayman Islands     Brucel… Domestic        Cattle                     0
#>  4 JPN   Japan              Brucel… Domestic        Cattle                     0
#>  5 SYC   Seychelles         Brucel… Domestic        Cattle                     0
#>  6 SYR   Syria              Brucel… Domestic        Cattle                     0
#>  7 PSE   Palestine          Brucel… Domestic        Cattle                     0
#>  8 USA   United States of … Brucel… Domestic        Cattle                     0
#>  9 ARM   Armenia            Brucel… Domestic        Cattle                     0
#> 10 AZE   Azerbaijan         Brucel… Domestic        Cattle                     0
#> # ℹ 55 more rows
#> # ℹ 12 more variables: targeted_surveillance <int>, general_surveillance <int>,
#> #   screening <int>, precautions_at_the_borders <int>, slaughter <int>,
#> #   selective_killing_and_disposal <int>, zoning <int>,
#> #   official_vaccination <int>, last_outbreak_end_date <date>,
#> #   commerce_illegal <int>, commerce_legal <int>, data_source <chr>
…
