Validate 'riskintro' Datasets — validate_table_content • riskintrodata
…
#> 1 eu_id    TRUE  FALSE    TRUE         NA    NA    NA    "eu_id" has been valid…
#> 2 eu_id    TRUE  FALSE    TRUE         NA    NA    NA    "eu_id" has been valid…
#> 3 eu_name  FALSE TRUE     FALSE        NA    NA    NA    Column: "eu_name" is m…
#> 4 geometry FALSE TRUE     FALSE        NA    NA    NA    Column: "geometry" is …
#> 
#> attr(,"class")
#> [1] "validation_status"
#> 
#> $dataset
#> Simple feature collection with 268 features and 0 fields
#> Geometry type: MULTIPOLYGON
#> Dimension:     XY
#> Bounding box:  xmin: 7.530076 ymin: 30.23681 xmax: 11.59826 ymax: 37.55986
#> Geodetic CRS:  WGS 84
#> # A tibble: 268 × 1
#>                                                                             geom
#>                                                               <MULTIPOLYGON [°]>
#>  1 (((10.13861 36.89453, 10.14495 36.89476, 10.15127 36.89476, 10.1576 36.89235…
#>  2 (((10.05585 36.84308, 10.06575 36.85019, 10.07327 36.8544, 10.07366 36.85451…
#>  3 (((10.13862 36.89416, 10.1329 36.88994, 10.13283 36.88892, 10.1326 36.88572,…
#>  4 (((10.1317 36.88428, 10.1317 36.88271, 10.1317 36.8797, 10.12929 36.87579, 1…
#>  5 (((10.16651 36.88694, 10.16422 36.88874, 10.1576 36.89235, 10.15127 36.89476…
#>  6 (((10.27118 36.88874, 10.26842 36.88874, 10.26149 36.88783, 10.25577 36.8863…
#>  7 (((10.01018 37.00285, 10.0102 37.00285, 10.01045 37.00283, 10.01063 37.00281…
#>  8 (((10.19313 36.85656, 10.19313 36.85892, 10.19313 36.86404, 10.19313 36.8667…
#>  9 (((9.141866 36.86897, 9.140129 36.86767, 9.137473 36.86604, 9.133329 36.8623…
#> 10 (((9.086732 36.70221, 9.082556 36.70772, 9.078131 36.71146, 9.075724 36.7131…
#> # ℹ 258 more rows
…
DATA_ANIMAL_MOBILITY
#> # A tibble: 112 × 12
#>    animal_mobility_id o_name   o_lng o_lat d_name d_lng d_lat quantity o_country
#>    <chr>              <chr>    <dbl> <dbl> <chr>  <dbl> <dbl>    <dbl> <chr>    
#>  1 am-00001           AEROP…  -4.08   14.5 AEROP… 10.8   33.9     2217 Mali     
#>  2 am-00002           AEROP… -17.5    14.7 AEROP… 10.7   34.7     5343 Senegal  
#>  3 am-00003           SENGH… -13.2    14.6 POINT…  7.66  33.5     7798 Senegal  
#>  4 am-00004           TESSA…   0.706  20.4 POINT… 10.7   32.0     9519 Mali     
#>  5 am-00005           PERUV… -77.1   -12.0 PORT …  9.89  37.3     6133 Peru     
#>  6 am-00006           BAHIA… -62.3    48.9 PORT … 10.1   33.9     1785 Canada   
#>  7 am-00007           AINZE…   8.26   35.6 BOUJA…  8.49  35.7     2693 Algeria  
#>  8 am-00008           AINZE…   8.26   35.6 BOUJA…  8.49  35.7     6307 Algeria  
#>  9 am-00009           AINZE…   8.26   35.6 BOUJA…  8.49  35.7     4791 Algeria  
#> 10 am-00010           BOUGO…   8.36   36.7 HALIMA 10.0   36.4     7299 Algeria  
#> # ℹ 102 more rows
#> # ℹ 3 more variables: o_iso3 <chr>, d_country <chr>, d_iso3 <chr>
…
#>  9 screening                 TRUE  TRUE     TRUE         NA    NA    NA    "scr…
#> 10 precautions_at_the_borde… TRUE  TRUE     TRUE         NA    NA    NA    "pre…
#> 11 slaughter                 TRUE  TRUE     TRUE         NA    NA    NA    "sla…
#> 12 selective_killing_and_di… TRUE  TRUE     TRUE         NA    NA    NA    "sel…
#> 13 zoning                    TRUE  TRUE     TRUE         NA    NA    NA    "zon…
#> 14 official_vaccination      TRUE  TRUE     TRUE         NA    NA    NA    "off…
#> 15 last_outbreak_end_date    TRUE  TRUE     TRUE         NA    NA    NA    "las…
#> 16 commerce_illegal          TRUE  TRUE     TRUE         NA    NA    NA    "com…
#> 17 commerce_legal            TRUE  TRUE     TRUE         NA    NA    NA    "com…
#> 
#> attr(,"class")
#> [1] "validation_status"
#> 
#> $dataset
#> # A tibble: 65 × 18
#>    iso3  country            disease animal_category species disease_notification
#>    <chr> <chr>              <chr>   <chr>           <chr>                  <int>
#>  1 ALB   Albania            Brucel… Domestic        Cattle                     0
#>  2 BWA   Botswana           Brucel… Domestic        Cattle                     1
#>  3 CYM   Cayman Islands     Brucel… Domestic        Cattle                     0
#>  4 JPN   Japan              Brucel… Domestic        Cattle                     0
#>  5 SYC   Seychelles         Brucel… Domestic        Cattle                     0
#>  6 SYR   Syria              Brucel… Domestic        Cattle                     0
#>  7 PSE   Palestine          Brucel… Domestic        Cattle                     0
#>  8 USA   United States of … Brucel… Domestic        Cattle                     0
#>  9 ARM   Armenia            Brucel… Domestic        Cattle                     0
#> 10 AZE   Azerbaijan         Brucel… Domestic        Cattle                     0
#> # ℹ 55 more rows
#> # ℹ 12 more variables: targeted_surveillance <int>, general_surveillance <int>,
#> #   screening <int>, precautions_at_the_borders <int>, slaughter <int>,
#> #   selective_killing_and_disposal <int>, zoning <int>,
#> #   official_vaccination <int>, last_outbreak_end_date <date>,
#> #   commerce_illegal <int>, commerce_legal <int>, data_source <chr>
…
#>  7 lat        TRUE  TRUE     TRUE         NA    NA    NA    "lat" has been vali…
#>  8 lat        TRUE  TRUE     TRUE         NA    NA    NA    "lat" has been vali…
#>  9 mode       TRUE  FALSE    TRUE         NA    NA    NA    "mode" has been val…
#> 10 type       TRUE  FALSE    TRUE         NA    NA    NA    "type" has been val…
#> 
#> attr(,"class")
#> [1] "validation_status"
#> 
#> $dataset
#> Simple feature collection with 110 features and 4 fields
#> Geometry type: POINT
#> Dimension:     XY
#> Bounding box:  xmin: 7.572541 ymin: 31.94455 xmax: 11.59319 ymax: 37.26487
#> Geodetic CRS:  WGS 84
#> # A tibble: 110 × 5
#>    point_id point_name             mode  type             geometry
#>  * <chr>    <chr>                  <chr> <chr>         <POINT [°]>
#>  1 ep-00001 aeroport Djerba        C     AIR   (10.77592 33.87149)
#>  2 ep-00002 aeroport enfidha       C     AIR   (10.43123 36.07011)
#>  3 ep-00003 aeroport monastir      C     AIR   (10.75472 35.75806)
#>  4 ep-00004 aeroport sfax          C     AIR   (10.68861 34.72056)
#>  5 ep-00005 aeroport tabarka       C     AIR    (8.87528 36.98028)
#>  6 ep-00006 Aeroport tozeur        C     AIR    (8.10139 33.93889)
#>  7 ep-00007 aeroport tunis cathage C     AIR   (10.22694 36.85111)
#>  8 ep-00001 aeroport Djerba        C     AIR   (10.77592 33.87149)
#>  9 ep-00002 aeroport enfidha       C     AIR   (10.43123 36.07011)
#> 10 ep-00003 aeroport monastir      C     AIR   (10.75472 35.75806)
#> # ℹ 100 more rows
…
